{
    "words": {
        "english": [
            "Ball",
            "Bat",
            "Car",
            "Cat",
            "Cow",
            "Dog",
            "Dragon",
            "Jump",
            "Lick",
            "Mouse",
            "Tree",
            "Water"
        ],
        "français": [
            "Balle",
            "Banane",
            "Bateau",
            "Bonjour",
            "Chat",
            "Chien",
            "Fille",
            "Garçon",
            "Lion",
            "Maison",
            "Merci",
            "Non",
            "Poule",
            "Oui",
            "Zèbre"
        ],
        "português": [
            "Banana",
            "Barco",
            "Bola",
            "Carro",
            "Cinco",
            "Dois",
            "Gato",
            "Leite",
            "Mão",
            "Menina",
            "Menino",
            "Pato",
            "Sim",
            "Urso",
            "Uva"
        ]
    }
}